{
  "sets": {
    "testSet": {
      "@comment": "Only the following server groups are allowed to use this set.",
      "allowedGroups": [1,3,5],

      "@comment___": "Clients joining this channel should be notified about the command to use.",
      "watch_channel": 666,

      "channel": {
        "@comment_": "Created channels shall be put under the following channel.",
        "parent": 666,

        "@comment____": "permanent, semi-permanent or temporary",
        "type": "permanent",

        "@comment_____": "Timeout for temporary channels",
        "ttl": 400,

        "@comment______": "Custom properties to be set on the channels.",
        "properties": {
          "channel_topic": "This is a private channel."
        },

        "permissions": {
          "i_icon_id": 600
        },

        "channel_group": 5,
        "@comment_______": "Channel group to be assigned to clients"
      },

      "group_at":  5,
      "group_delimiter": {
        "name": "[cspacer] == Block %i% ==",
        "properties": {
        }
      }
    }
  }
}
